lab1_hls/axil_conv2D/hls/sim/wrapc_pc/run_xsim.log
P3
86 86 255
118 130 144 117 131 146 118 132 148 122 135 150 123 135 151 120 135 150 122 137 152 120 135 151 117 132 148 118 134 149 121 137 153 122 139 154 123 139 155 124 139 155 125 140 157 
126 140 157 127 141 158 127 140 157 120 135 152 112 128 147 109 126 144 108 127 145 109 125 144 107 125 142 105 123 142 103 121 142 102 119 140  98 118 139  98 117 139  98 117 140 
 97 117 142 101 120 144 102 121 144 103 122 146 106 125 148 108 126 149 108 127 150 108 127 150 109 127 151 108 127 151 108 127 151 106 126 150 108 127 152 109 130 154 109 129 153 
108 129 153 110 130 154 110 131 155 110 132 156 111 132 157 112 133 158 112 134 158 114 134 159 113 135 160 114 135 159 115 136 161 115 138 162 116 139 163 118 140 164 117 141 165 
118 141 166 116 140 166 116 140 166 117 142 168 120 146 171 124 149 173 128 152 175 129 151 177 131 153 178 133 154 178 130 152 177 127 150 175 130 151 177 130 153 178 130 154 179 
131 155 179 130 153 180 130 154 181 131 154 179 131 154 180 130 155 181 130 156 181 129 154 179 128 153 179 128 153 178 128 152 177 121 134 147 121 134 148 119 133 148 121 133 149 
117 130 146 113 128 143 116 131 146 118 132 148 119 134 150 119 136 151 119 136 152 122 138 153 123 138 154 122 137 153 121 137 154 120 137 154 123 138 155 125 139 156 121 135 153 
115 131 150 111 128 145 110 127 145 109 126 145 107 125 144 105 123 142 104 121 142 104 121 142 101 120 140 101 120 141 102 120 143 102 122 145 104 123 146 104 123 146 105 125 147 
109 128 150 111 129 151 111 130 153 111 130 152 109 128 151 110 129 152 109 128 152 106 128 152 106 128 153 105 128 152 107 128 152 109 130 154 110 130 155 109 131 156 110 131 156 
112 131 157 110 132 156 110 133 157 112 133 157 112 133 158 113 134 158 113 134 159 113 135 160 114 137 162 115 138 163 115 140 163 116 139 164 115 139 165 115 140 166 116 143 168 
119 145 170 121 147 171 127 150 173 128 150 175 128 151 175 127 150 176 125 148 175 125 149 175 128 150 175 128 151 175 128 151 177 129 152 177 127 152 177 129 152 178 130 153 178 
128 153 179 127 153 178 127 153 178 128 151 178 127 152 177 128 152 176 128 151 176 123 134 149 122 135 149 122 134 149 122 133 149 117 131 146 114 128 144 116 131 146 118 132 147 
118 134 150 119 135 151 119 135 152 120 136 152 120 135 153 120 134 152 117 134 151 117 134 152 119 136 154 121 136 153 116 133 152 114 130 149 110 127 145 109 126 145 108 125 144 
106 124 143 104 122 141 104 121 141 104 122 142 102 120 141 103 121 142 104 122 144 106 124 146 107 125 146 106 125 146 107 127 149 110 129 151 111 130 152 112 131 153 112 131 153 
110 128 152 112 129 153 111 130 153 109 130 154 109 130 153 106 128 152 109 128 153 110 129 155 109 130 154 110 130 155 110 131 155 110 132 156 109 131 155 109 132 156 111 134 157 
111 133 157 112 133 158 112 134 158 112 134 160 112 135 161 113 137 161 115 139 163 115 139 163 116 139 164 115 140 166 115 142 167 118 143 168 120 146 170 127 149 173 129 150 175 
128 151 175 127 150 174 125 149 173 125 148 173 126 149 174 126 149 173 128 150 174 128 150 174 128 150 176 127 151 174 128 151 176 127 151 177 126 151 176 126 151 177 127 151 177 
126 151 177 126 151 176 126 150 176 123 133 149 121 134 148 120 133 148 120 133 148 118 131 147 117 130 147 119 132 148 118 133 148 117 133 149 118 133 149 118 133 150 118 134 150 
117 134 152 116 132 150 115 131 149 116 133 151 118 134 152 116 133 151 114 131 151 113 129 149 109 126 144 108 125 143 107 124 143 106 123 143 104 123 142 104 122 142 104 122 143 
103 121 142 104 121 143 105 122 144 108 125 145 109 127 146 110 128 148 110 129 150 112 130 152 113 131 151 111 130 152 111 130 152 111 129 153 112 130 154 113 131 154 113 131 155 
112 132 156 110 130 154 110 130 154 110 129 154 111 130 154 111 131 154 111 130 154 110 131 155 110 131 156 110 131 155 111 133 157 111 133 157 112 134 158 111 135 159 110 134 159 
110 134 159 111 136 159 113 138 162 116 140 163 117 140 165 116 141 166 116 141 166 117 142 167 120 145 169 123 146 170 124 147 172 123 147 171 124 147 171 124 147 172 124 147 172 
124 148 173 124 148 172 126 148 172 127 149 172 128 149 174 126 150 173 127 149 173 126 150 174 127 150 175 127 151 176 125 151 177 125 150 176 125 149 175 124 150 175 121 133 147 
120 133 148 119 132 147 118 132 147 117 132 147 117 131 147 117 131 146 117 131 146 115 131 147 115 131 147 115 131 147 116 132 149 115 132 150 113 131 149 113 131 149 115 132 150 
116 133 151 115 132 150 113 129 149 111 127 147 109 126 145 109 126 144 108 125 144 107 124 143 106 124 144 105 123 144 106 123 145 105 123 144 105 123 144 106 124 145 109 126 147 
112 129 149 112 130 151 112 130 152 114 131 153 114 131 153 112 130 153 111 130 153 110 130 153 111 131 154 115 132 154 116 133 155 114 132 156 113 132 156 112 131 155 113 132 155 
117 134 155 119 135 156 117 134 157 115 135 157 114 134 157 113 133 157 111 133 157 112 132 157 113 134 158 112 134 159 112 135 160 112 135 160 112 135 160 112 137 161 116 139 163 
118 140 164 119 141 166 118 142 166 120 143 167 122 144 168 122 145 169 122 145 169 122 144 169 124 144 168 125 145 170 123 147 170 123 147 171 124 147 172 125 148 172 126 149 172 
126 149 173 126 149 173 127 150 174 126 150 173 125 149 174 125 150 174 124 149 175 124 149 174 124 148 173 123 148 172 121 132 147 120 132 147 120 131 146 118 130 146 117 130 146 
115 130 146 114 129 145 114 129 144 112 127 143 110 127 143 113 129 145 114 130 147 112 129 148 111 129 147 111 129 148 112 130 150 113 131 150 113 131 149 111 127 146 109 126 146 
110 127 145 109 125 143 108 125 143 107 125 143 106 124 143 107 124 144 108 125 145 108 125 146 108 126 145 109 127 146 111 128 148 113 130 149 111 129 149 112 130 152 113 130 152 
113 131 153 113 131 153 112 131 153 112 130 153 112 131 154 114 133 153 116 133 155 114 133 154 113 131 154 113 132 155 119 135 155 127 140 157 128 141 159 125 139 158 119 136 157 
114 133 156 114 133 157 113 134 158 111 133 158 113 134 158 112 134 158 113 135 159 114 136 161 113 135 161 114 137 161 116 137 162 117 138 163 119 139 164 120 141 165 121 143 165 
123 143 167 123 144 168 122 144 167 122 144 168 123 144 167 123 143 168 122 145 168 122 146 169 124 146 170 126 148 171 124 148 171 124 147 171 126 148 172 125 148 172 123 147 172 
122 146 171 122 147 172 123 147 173 122 148 172 122 148 173 122 147 172 120 132 147 120 131 148 120 131 147 119 131 146 118 131 147 116 130 146 113 128 144 112 127 143 109 125 141 
109 125 141 112 128 143 110 127 145 110 127 145 110 127 145 109 127 146 110 128 147 111 129 148 111 129 148 110 128 146 110 127 145 110 128 145 109 126 144 108 125 143 106 125 142 
106 125 142 107 125 144 108 126 145 108 126 146 108 127 147 110 127 147 112 129 149 112 130 149 111 129 149 113 129 153 113 130 151 113 130 152 112 130 152 112 131 153 113 131 152 
112 131 153 114 133 152 114 131 154 112 131 154 111 130 154 115 133 155 123 138 156 132 143 159 134 144 160 129 141 158 120 136 157 113 133 156 113 133 157 114 134 159 112 133 157 
111 133 157 112 134 158 113 134 158 115 135 160 115 136 160 114 136 160 115 137 161 116 138 161 117 138 162 119 140 164 120 142 165 122 143 166 123 143 167 123 143 167 122 143 167 
122 144 167 122 143 167 120 143 167 121 144 168 123 145 169 124 145 169 122 145 169 120 145 169 122 145 169 120 146 169 120 145 170 120 144 170 120 145 170 121 146 171 120 146 171 
121 146 171 120 146 170 118 131 146 118 130 146 118 130 146 118 131 145 118 131 146 116 129 145 112 127 144 111 126 142 109 125 141 108 125 141 111 126 142 109 125 142 108 126 143 
108 126 144 108 126 144 110 127 145 110 127 146 109 127 147 109 128 147 111 128 146 111 128 146 110 127 146 109 126 144 107 126 142 107 125 143 108 126 145 109 126 146 107 126 146 
108 127 146 110 128 147 111 128 149 111 129 150 110 128 150 112 130 151 111 130 150 112 129 151 111 129 151 111 130 152 112 130 152 110 130 153 112 131 153 114 131 153 111 130 153 
112 130 155 116 134 154 126 139 155 130 142 158 134 144 160 132 142 159 123 137 157 115 134 157 115 134 158 115 135 158 112 134 157 111 132 158 113 133 159 115 135 159 116 136 160 
114 136 160 113 135 159 114 136 160 116 137 160 116 137 161 117 139 163 119 140 164 120 141 165 121 142 166 121 142 166 121 142 166 120 142 166 120 141 166 119 141 166 120 142 167 
122 143 167 120 143 167 118 142 167 117 141 167 116 142 167 118 143 168 118 143 168 119 143 168 119 144 170 119 145 170 119 145 169 119 144 169 118 144 168 115 128 143 114 128 143 
114 128 143 114 128 143 113 129 144 113 127 143 111 127 142 110 126 141 108 125 141 109 124 141 108 126 141 108 125 141 108 125 142 107 125 143 107 125 143 109 127 145 110 127 147 
111 128 147 111 128 146 111 128 146 111 128 147 111 128 146 109 127 145 108 126 144 108 125 144 107 126 145 109 127 145 109 127 145 110 126 147 111 127 147 111 128 148 111 127 148 
110 128 149 109 128 148 109 128 149 109 128 149 109 128 151 109 128 152 110 129 151 109 129 153 113 130 153 114 132 152 111 129 151 114 131 154 120 136 154 125 139 155 123 138 155 
125 140 157 127 141 158 122 139 159 118 135 158 115 133 157 113 133 156 111 132 156 113 134 158 113 135 158 114 136 159 114 135 158 112 134 158 111 134 157 111 134 158 114 135 159 
114 135 160 116 136 161 116 137 161 118 138 163 117 139 163 118 139 163 118 140 163 117 139 163 117 139 164 117 139 163 117 139 164 118 140 164 116 139 164 113 139 164 114 139 164 
114 139 166 115 140 166 115 140 166 116 141 167 116 142 168 116 143 169 117 143 168 117 143 167 116 142 166 108 125 140 108 124 138 108 124 139 109 125 140 109 124 140 107 124 139 
108 124 140 107 123 140 106 123 140 107 123 142 107 124 142 107 125 141 109 126 142 108 125 142 107 125 142 109 126 144 111 128 145 110 127 144 109 126 143 110 127 145 112 129 146 
111 128 146 109 126 144 109 125 143 108 125 144 107 125 145 107 126 146 108 127 145 108 126 144 107 126 145 108 126 148 109 127 147 108 126 147 107 126 147 106 126 149 107 125 148 
108 127 150 109 129 151 111 130 151 110 129 152 110 129 151 112 131 153 110 130 153 111 130 154 111 131 153 115 133 155 116 132 154 116 132 154 114 133 155 114 134 156 114 133 156 
113 132 156 111 131 155 109 132 156 112 133 157 113 133 157 113 133 158 112 134 158 110 133 157 108 132 156 109 132 156 111 133 157 113 135 158 114 135 158 113 134 157 114 136 159 
114 135 161 113 137 162 114 137 161 113 138 161 113 137 162 112 137 162 114 138 161 114 137 162 114 135 161 110 137 161 110 136 162 111 137 164 111 137 163 110 138 164 111 138 165 
112 138 165 112 139 166 112 140 165 113 140 165 111 141 165 106 120 137 105 120 136 104 120 136 106 121 137 106 122 138 105 122 138 104 121 137 103 120 136 103 121 138 104 121 138 
104 121 138 106 123 140 108 125 141 109 126 142 109 126 142 110 126 144 109 125 143 108 125 141 107 124 141 108 125 144 110 126 146 108 126 144 108 125 143 107 125 143 108 124 144 
107 125 144 108 125 145 108 125 145 109 126 145 108 126 145 108 126 148 109 126 145 108 125 144 107 125 148 107 126 150 110 127 149 117 132 151 120 134 152 118 133 150 115 132 151 
111 130 152 109 128 151 110 129 152 109 129 152 110 130 153 111 130 153 112 130 153 112 130 154 111 130 154 110 129 153 111 130 154 110 130 155 109 130 154 108 129 154 108 130 154 
109 130 154 111 132 156 111 131 156 110 131 155 108 130 155 107 130 154 110 131 155 111 132 157 112 132 157 111 132 156 109 132 157 111 132 157 110 133 159 110 133 158 111 134 159 
111 134 158 110 134 159 110 134 161 110 134 161 109 134 159 108 133 160 105 133 160 106 132 160 107 134 162 108 134 161 108 134 161 108 136 162 109 136 163 110 137 164 111 138 165 
112 138 163 102 119 134 103 117 134 102 118 134 102 119 135 102 119 135 103 120 136 104 120 137 103 119 136 102 118 136 102 119 136 104 120 136 107 123 140 108 125 141 108 124 140 
108 124 140 107 124 141 107 124 140 107 124 141 107 124 141 107 124 142 108 125 143 107 124 143 106 124 141 106 124 142 107 124 141 107 124 141 108 125 142 108 125 144 108 126 145 
107 126 144 108 126 146 108 125 145 108 125 146 107 126 147 110 128 148 114 131 149 122 136 152 124 136 153 117 132 152 112 129 151 110 128 152 109 128 151 109 128 152 107 128 152 
107 127 151 107 128 152 108 128 151 108 128 152 109 129 153 109 128 152 108 129 153 109 129 154 108 130 153 109 129 153 108 131 154 109 130 154 108 131 154 107 130 154 109 130 155 
109 130 156 106 128 153 106 128 153 107 129 154 106 129 153 105 128 153 104 129 154 106 129 155 108 130 156 108 131 155 108 131 156 107 131 158 106 131 157 106 130 158 106 130 157 
105 131 157 107 130 158 105 131 158 104 130 158 104 131 158 104 131 159 104 131 158 106 133 160 106 134 160 108 134 161 109 135 163 110 137 162 100 117 132 103 118 133 103 118 134 
101 117 133 101 117 132 101 118 133 102 119 135 101 119 136 102 120 137 106 122 137 109 124 139 114 127 142 110 126 141 108 125 141 109 126 142 110 126 143 110 126 142 110 126 143 
108 125 143 109 125 142 106 124 141 107 124 141 106 124 140 107 124 141 106 124 142 106 124 143 107 125 144 107 125 145 108 125 144 108 124 144 107 125 145 108 126 144 109 126 146 
109 128 146 111 128 146 112 129 148 112 129 149 111 129 150 109 127 149 106 126 148 105 125 149 106 125 148 106 125 149 104 125 149 105 124 149 104 125 149 105 125 149 106 126 150 
107 127 151 108 128 152 108 129 153 109 129 153 111 130 153 112 130 155 110 130 153 109 131 154 109 130 154 107 130 153 109 130 154 107 130 153 104 127 153 104 127 152 104 126 152 
103 126 151 103 125 151 102 125 151 103 126 152 104 127 153 103 128 152 103 128 153 104 127 155 103 128 154 103 127 155 102 127 154 102 128 154 103 128 155 102 128 155 101 128 155 
101 128 155 101 129 156 102 129 156 104 130 157 105 131 158 105 132 160 106 133 161 108 136 162 102 117 132 104 119 134 103 119 134 103 118 134 104 118 135 103 119 135 105 121 137 
106 121 138 112 125 140 117 128 142 119 130 143 119 130 144 112 126 142 110 126 142 112 128 144 113 128 144 112 127 144 111 127 143 110 126 143 110 126 142 107 125 142 108 125 142 
108 125 142 108 125 143 107 125 142 107 125 142 108 125 143 108 125 144 107 125 144 108 125 144 107 125 144 109 127 144 109 126 145 110 128 146 110 127 147 111 128 147 109 127 147 
108 127 148 108 126 147 107 125 147 105 124 147 105 124 146 104 124 146 104 125 147 105 124 147 103 124 148 103 124 148 104 125 149 106 127 150 108 128 151 109 129 153 111 130 153 
112 130 153 111 129 154 110 129 153 110 129 153 109 129 153 109 129 153 109 130 154 106 129 152 104 127 152 103 126 151 102 125 150 101 125 150 102 123 151 101 124 149 102 124 150 
103 125 149 102 124 150 100 125 151 100 124 151 100 125 152  99 125 152  98 125 153  99 125 151 100 125 153  99 125 153  99 126 154  99 127 153  99 127 154 101 128 155 103 129 156 
104 131 159 105 132 160 106 133 161 109 136 163 111 123 138 111 124 138 107 123 137 108 123 138 112 125 140 114 127 140 118 129 142 121 131 143 132 136 146 131 135 144 126 133 145 
115 127 143 108 125 141 108 124 140 110 126 142 111 128 144 111 127 143 110 127 143 109 126 143 109 125 142 108 125 142 108 125 142 107 126 142 108 126 144 107 125 143 108 125 143 
107 126 144 107 126 144 108 126 144 108 126 144 108 126 145 112 127 145 113 127 146 110 127 147 110 127 146 111 128 147 112 128 146 113 129 147 112 128 146 110 128 146 108 127 146 
109 127 147 111 129 149 112 129 149 109 128 148 107 127 148 106 126 148 108 127 150 109 128 151 111 129 152 111 130 153 112 130 152 113 131 152 112 130 153 112 130 154 111 130 152 
112 130 154 112 130 154 110 130 155 108 129 153 105 127 152 103 126 151 101 125 150 100 124 149 101 124 150 100 124 150 100 124 149 100 125 149 100 124 150  99 125 150  99 124 151 
100 124 151 100 125 152 100 126 154 100 125 152 101 125 153 101 126 154 103 127 155 101 128 154 101 128 154 102 129 157 105 131 158 107 134 160 110 136 162 111 138 163 113 139 164 
119 129 141 119 129 141 116 128 141 116 127 142 119 129 142 120 131 143 124 132 145 135 138 147 144 142 149 138 139 147 130 135 145 116 128 143 109 125 141 109 125 140 109 125 141 
110 127 143 110 127 143 109 127 142 108 125 142 107 123 141 106 123 140 106 124 141 106 124 142 108 124 143 107 124 142 107 124 142 106 125 144 106 125 143 108 126 143 109 127 143 
113 129 145 120 132 148 117 130 147 113 128 146 114 129 146 120 131 148 123 133 148 122 133 149 120 133 149 120 133 148 117 132 149 116 131 149 120 134 151 120 133 151 117 132 150 
115 131 150 114 130 150 114 131 151 113 131 151 114 132 152 114 131 153 113 131 152 115 133 153 114 132 151 113 132 152 113 132 153 114 132 155 113 132 155 112 131 155 111 130 154 
110 129 155 108 129 154 107 128 153 105 127 152 105 128 153 106 129 153 106 129 153 106 129 153 106 129 154 105 130 154 106 129 155 105 130 155 107 130 156 107 131 157 107 130 155 
108 131 157 109 132 158 109 133 159 109 133 158 109 133 158 109 134 160 111 135 161 112 137 162 114 139 164 114 140 165 115 141 165 122 131 142 121 131 141 121 130 142 121 129 143 
120 131 143 120 130 142 125 132 145 138 139 147 142 141 148 136 138 146 132 135 144 117 129 144 112 127 143 110 126 141 110 125 141 111 125 141 109 126 141 107 125 140 106 123 140 
105 121 138 105 122 138 104 122 140 105 123 140 106 122 142 105 123 141 105 123 142 105 125 142 107 126 143 110 126 144 116 130 145 120 132 147 126 134 150 120 132 147 119 131 147 
126 133 147 136 137 148 138 138 148 132 136 149 128 136 150 125 135 149 122 133 150 120 133 149 121 134 150 121 134 150 120 134 150 119 133 149 117 132 149 117 132 150 115 132 151 
115 131 152 114 131 151 115 132 151 117 132 151 114 132 151 114 131 151 114 132 154 114 131 155 114 131 155 113 131 155 114 131 154 114 131 154 113 132 155 112 131 155 111 131 155 
113 132 157 114 134 156 114 133 157 112 132 157 111 133 157 111 134 157 113 134 159 112 134 159 113 134 158 112 133 158 113 134 158 114 134 159 114 136 160 114 136 161 114 136 160 
114 137 161 113 137 162 114 138 163 115 139 164 116 139 164 116 140 164 117 141 165 121 131 142 119 130 141 120 130 143 120 130 143 121 130 143 120 131 142 125 133 144 134 138 146 
136 139 146 135 138 147 130 135 145 116 130 145 113 126 142 110 126 141 110 125 141 109 125 140 108 124 140 108 123 140 107 123 139 107 122 140 108 124 140 107 124 140 107 124 140 
108 125 140 110 125 142 108 125 142 110 127 143 116 130 144 120 131 147 126 135 148 127 135 149 126 134 149 123 134 147 127 135 148 137 139 149 142 140 149 140 140 149 129 136 149 
125 135 149 122 134 149 119 132 149 121 134 150 122 135 151 122 134 151 120 134 149 118 132 149 117 131 149 116 132 150 115 131 151 114 131 152 114 131 151 115 132 151 116 131 151 
115 130 151 114 130 150 113 131 153 113 131 154 114 131 155 115 131 155 114 132 155 114 133 155 113 132 155 114 133 156 114 133 157 114 133 157 115 134 157 114 133 156 112 133 157 
112 133 157 113 134 157 114 135 158 114 136 159 113 135 159 113 135 160 113 136 160 116 135 160 116 137 161 117 138 161 116 138 162 115 138 162 115 138 162 116 139 163 117 140 164 
116 139 164 116 140 165 118 141 164 116 129 142 117 129 141 118 129 141 119 130 141 120 130 143 121 131 143 126 132 143 133 136 146 134 137 147 134 139 148 131 136 145 119 130 144 
114 127 142 111 127 141 111 126 141 111 126 141 112 127 141 114 127 141 117 128 142 118 130 142 120 131 145 121 130 144 120 131 144 121 133 144 124 133 146 122 133 146 124 134 147 
127 136 148 126 136 149 127 137 149 127 135 149 125 135 148 125 135 148 127 136 149 133 139 150 133 139 150 130 137 149 123 134 148 121 133 149 121 133 149 121 133 149 126 135 150 
129 136 150 125 135 151 120 133 150 117 132 150 116 131 149 115 131 150 114 130 150 113 130 150 114 131 150 115 131 150 114 130 150 114 130 151 115 131 151 114 132 152 115 132 153 
116 132 154 115 132 154 114 131 154 114 132 154 114 133 154 114 132 155 114 133 157 115 133 157 114 133 157 114 133 157 112 133 156 112 133 157 112 134 157 114 134 157 113 135 158 
112 134 158 113 135 159 114 136 159 117 136 160 116 137 161 116 138 161 117 137 161 117 138 162 117 138 163 117 139 163 117 139 164 115 139 163 116 140 164 117 140 164 114 126 139 
115 127 140 116 128 141 118 129 142 120 131 142 123 132 143 131 135 144 137 139 146 136 139 146 132 138 147 128 134 145 120 131 142 116 129 143 116 129 142 116 129 142 118 131 143 
121 132 143 123 133 144 126 134 145 126 134 145 128 136 146 131 136 147 134 137 148 133 137 148 134 138 148 133 138 148 129 137 147 128 137 148 128 137 149 128 136 148 127 136 147 
125 136 147 127 136 151 128 137 151 128 136 149 127 136 150 124 135 150 124 134 150 122 134 150 123 134 151 124 134 150 126 136 150 129 138 150 127 135 150 121 132 149 117 132 148 
115 131 147 114 130 149 113 130 150 112 130 149 112 130 150 113 130 149 113 130 149 115 132 152 115 133 151 116 132 150 116 133 152 117 133 153 115 132 153 113 131 153 113 131 153 
114 131 154 114 132 154 114 132 155 114 133 156 113 132 156 112 132 155 113 132 156 112 132 156 112 133 157 114 134 157 114 135 158 113 135 158 113 135 159 113 135 158 117 136 160 
116 137 160 115 137 160 115 138 161 116 138 161 115 137 162 115 138 162 115 138 162 114 139 162 114 138 162 115 139 163 115 128 140 116 128 140 119 129 142 123 131 142 126 132 143 
131 136 145 139 139 147 142 141 146 139 139 147 131 137 146 126 134 145 124 132 145 123 132 145 123 132 145 123 132 145 126 134 145 129 135 146 129 136 146 131 138 147 132 138 147 
136 138 148 144 141 147 144 141 148 141 141 147 142 141 148 138 141 148 133 139 149 129 136 147 125 135 146 126 134 147 128 136 149 128 136 147 128 137 149 128 137 149 126 136 149 
125 136 149 124 135 149 125 135 150 123 134 150 122 133 149 122 134 148 123 135 150 126 136 152 131 138 150 133 137 150 130 136 150 124 134 150 118 132 149 116 132 149 113 130 147 
112 129 148 113 129 149 115 130 149 114 130 150 113 129 152 114 130 151 114 131 152 115 132 153 114 132 153 112 132 153 112 130 153 113 130 154 114 131 154 112 132 155 112 132 156 
113 131 155 112 131 157 111 131 154 111 132 154 112 132 156 113 133 157 113 134 157 114 134 158 113 134 158 114 135 159 115 135 159 114 136 159 117 136 160 116 136 161 114 136 160 
113 135 160 114 137 161 114 136 160 113 137 160 112 137 160 113 138 161 140 118 126 136 121 129 131 133 142 132 135 143 137 137 144 142 140 146 147 143 148 147 143 147 140 140 146 
132 136 147 127 136 145 128 135 146 128 134 146 129 135 146 129 136 147 131 137 146 133 137 147 134 138 148 136 139 148 138 140 146 144 141 148 146 142 148 142 140 147 139 139 147 
139 139 150 134 139 150 130 137 148 128 136 149 122 133 147 121 133 147 124 134 149 126 134 148 125 136 148 125 135 148 123 134 149 122 134 149 121 134 149 121 133 149 120 133 148 
120 132 148 120 133 149 121 133 149 123 133 151 129 136 150 140 140 150 134 137 149 123 133 149 119 132 149 117 132 148 116 132 148 116 131 149 116 130 150 113 129 150 110 128 149 
111 128 149 111 128 149 112 128 152 112 130 154 112 131 153 111 131 153 112 129 154 112 130 153 112 131 154 112 132 156 111 131 155 112 130 154 113 131 154 111 132 155 111 132 155 
111 132 155 112 133 155 112 132 156 114 133 157 114 134 158 113 134 158 114 135 158 112 135 158 113 136 159 115 135 160 113 135 159 111 134 158 112 135 159 112 135 159 110 136 160 
110 135 160 112 136 161 218  68  50 208  81  66 168 121 115 138 137 144 138 140 146 140 141 146 138 140 145 138 139 145 134 137 147 130 137 147 130 136 147 129 136 147 129 137 147 
131 137 147 132 138 148 132 137 148 131 137 148 132 138 149 134 138 149 139 140 147 143 142 147 144 141 148 143 142 147 139 139 148 134 138 149 126 136 148 125 134 147 125 134 146 
121 133 145 119 132 145 120 133 146 121 132 148 123 132 148 122 133 145 120 133 147 118 132 147 117 131 147 117 130 146 117 130 146 117 131 146 119 132 147 119 132 148 121 132 148 
124 134 148 133 137 150 127 135 148 118 131 146 116 130 147 114 130 147 113 129 148 113 129 148 114 129 147 115 131 148 114 129 147 112 128 147 110 128 149 110 128 150 110 128 150 
108 128 151 108 128 152 109 129 151 110 130 151 110 129 153 111 130 153 110 129 154 109 129 153 110 130 153 110 130 154 109 130 154 109 129 154 109 131 154 110 132 155 111 132 156 
111 132 156 111 132 155 111 133 157 111 133 157 110 134 157 111 133 157 110 133 157 108 134 157 109 134 158 109 134 158 110 133 158 109 134 159 108 135 159 223  80  53 223  84  56 
201  71  65 158 120 123 133 138 146 132 137 145 131 137 146 130 136 146 129 135 145 127 135 145 128 135 145 128 136 145 128 136 146 129 136 146 130 137 147 130 137 147 131 136 148 
131 137 147 134 138 148 137 139 147 139 139 146 142 140 146 141 140 146 133 137 147 127 135 146 124 134 146 123 132 146 122 133 145 122 133 146 121 132 146 119 132 145 119 131 146 
120 132 146 119 131 146 117 130 145 115 130 146 115 129 145 115 130 145 115 130 144 116 130 146 122 131 147 124 133 147 125 132 147 122 132 148 126 135 148 123 133 147 115 130 146 
113 129 146 112 128 146 112 128 147 113 129 148 114 129 147 116 130 148 116 130 147 112 129 147 109 128 147 109 128 148 109 127 149 108 127 150 106 126 149 107 127 150 108 127 150 
107 127 150 109 127 152 108 127 152 106 127 151 108 127 152 107 127 151 107 127 152 106 126 151 106 128 153 107 130 154 108 130 154 107 129 153 105 129 152 108 130 154 108 130 156 
107 131 155 107 130 155 106 131 155 105 131 155 106 131 157 106 131 156 106 131 156 106 131 157 105 132 156 220  77  50 222  76  53 214  46  40 192  78  76 148 126 130 127 134 146 
126 133 146 125 133 145 125 133 143 125 133 143 126 134 145 126 135 145 127 135 146 128 135 146 128 136 146 128 136 146 128 136 147 129 136 147 131 138 148 132 138 147 134 136 146 
138 138 145 137 138 145 129 136 146 124 134 145 123 134 145 121 132 145 121 131 144 120 131 145 119 131 144 118 131 144 118 131 146 118 130 145 116 129 145 114 128 144 113 128 144 
114 128 144 116 129 145 115 129 144 115 129 145 118 130 146 120 132 146 121 131 146 118 131 145 122 133 147 120 131 147 115 129 146 113 129 144 113 128 145 113 127 146 115 129 147 
116 129 146 115 129 146 113 129 147 110 128 147 110 127 146 109 127 146 109 126 148 108 126 149 107 126 148 108 125 148 107 125 149 106 126 149 107 125 150 105 126 150 104 125 149 
105 125 150 105 125 149 104 125 149 104 125 148 104 126 151 105 127 152 104 126 151 104 125 151 102 126 150 104 128 152 102 128 154 102 128 153 103 128 153 103 129 153 103 129 153 
102 128 155 102 129 154 101 128 154 102 129 155 102 130 155 210  50  37 218  55  42 218  50  41 214  64  50 186 102  92 138 128 135 123 131 144 123 131 143 123 131 141 123 132 142 
125 133 144 124 133 144 123 132 144 124 133 144 125 133 145 126 134 145 127 135 146 128 136 147 129 137 147 129 136 147 130 137 147 129 136 145 129 135 145 126 134 145 124 132 144 
121 132 144 118 131 144 117 130 144 117 130 144 117 130 143 115 129 143 115 129 144 115 128 143 114 127 143 114 127 143 112 127 143 113 127 143 114 128 143 114 127 143 116 129 144 
119 129 146 121 131 147 120 131 146 118 130 145 119 131 146 118 130 147 120 130 147 121 131 146 120 131 146 119 129 146 116 128 145 114 128 146 112 127 145 110 126 145 109 126 146 
109 125 146 107 125 146 108 124 147 106 125 148 106 125 147 106 124 147 106 124 147 105 125 148 104 123 148 103 124 148 103 123 148 103 123 147 102 124 147 101 123 147 101 124 147 
101 124 148 101 124 148 100 124 149 100 123 148  99 123 148  99 124 149  98 124 150  98 124 151  99 124 150 100 125 150 100 125 152 100 125 152  99 125 151  99 126 152  99 127 153 
101 128 153 202  21  21 213  40  35 220  57  44 224  79  53 215  79  60 173  96  96 131 124 134 122 132 142 124 132 142 124 133 144 125 134 144 128 134 144 132 136 145 122 132 143 
123 132 144 124 134 144 126 135 145 127 135 146 127 136 146 127 135 146 127 135 146 125 133 143 125 132 144 123 131 143 122 131 142 121 132 144 118 132 145 117 130 144 117 130 143 
117 130 143 115 128 144 115 128 143 114 127 142 114 127 142 115 127 143 114 127 143 114 128 143 115 129 144 117 129 144 121 131 145 122 132 145 123 132 147 122 132 146 122 132 146 
122 132 146 122 132 146 123 131 146 125 132 148 125 133 147 122 131 146 117 130 145 114 129 145 112 127 144 110 126 144 109 125 145 108 125 146 106 125 145 107 124 146 106 125 146 
106 125 146 106 125 146 105 124 146 103 123 147 103 122 146 103 123 147 102 123 147 101 122 146 100 123 147  99 122 146 100 123 147 100 122 147  99 122 146  98 121 147  97 121 146 
 97 121 146  97 122 148  96 122 148  96 122 148  97 123 148  97 123 148  97 123 150  97 124 151  97 124 150  98 125 151  99 126 152 101 127 152 199  19  21 203  32  32 216  60  45 
223  88  60 218  73  54 203  56  53 160  92  97 127 127 136 123 132 143 123 132 143 124 133 143 137 139 146 168 156 156 131 135 144 123 132 144 124 134 145 125 134 145 126 135 145 
126 134 146 125 133 145 124 133 145 124 133 143 123 131 144 123 131 144 123 132 143 121 128 139 120 124 136 121 129 142 121 131 144 120 131 143 119 129 144 118 129 143 119 128 143 
118 129 144 118 129 144 117 128 144 118 128 145 119 129 146 120 130 146 122 131 145 122 132 144 123 132 146 120 131 145 121 131 145 121 130 144 121 130 145 120 130 144 120 130 146 
122 130 145 121 130 145 119 130 145 117 129 146 116 128 145 113 128 145 110 127 145 109 127 147 109 127 146 109 126 146 108 126 147 108 127 147 108 126 147 107 125 148 105 124 148 
104 124 148 104 124 149 104 125 149 102 124 148 101 123 148 101 122 147 100 121 146 100 121 145  99 121 145  98 120 146  98 121 146  98 120 146  97 121 147  96 121 147  96 122 147 
 98 122 148  97 122 148  96 122 148  96 123 149  96 124 150  97 124 150  98 125 149 100 126 151 190 115 119 192 121 125 198 134 132 201 146 139 198 137 135 196 125 128 184 135 141 
165 155 163 161 160 169 162 162 170 163 163 172 168 165 172 190 176 177 169 164 172 162 162 171 162 163 172 162 161 170 163 162 170 164 162 171 163 162 171 163 163 172 163 163 170 
162 160 170 162 161 172 163 161 170 161 156 163 161 151 159 161 157 167 161 159 170 162 159 170 162 159 170 162 160 169 161 158 170 161 159 170 161 158 170 160 158 170 160 158 171 
161 159 171 161 159 170 160 159 169 161 159 170 162 160 170 158 158 169 156 157 168 154 155 166 149 152 166 145 150 163 140 146 162 134 141 157 129 136 153 122 132 148 118 128 145 
